<?xml version="1.0" standalone="no"?>
<!DOCTYPE svg PUBLIC "-//W3C//DTD SVG 1.1//EN"
"http://www.w3.org/Graphics/SVG/1.1/DTD/svg11.dtd">

<svg width="232" height="286" view_box="0 0 232 286"
xmlns="http://www.w3.org/2000/svg"
xmlns:link="http://www.w3.org/1999/xlink">\n\n<desc>Généré par Mocodo 2.3.7 le Tue, 24 Mar 2020 12:39:13</desc>

<rect id="frame" x="0" y="0" width="232" height="286" fill="#f7f7f7" stroke="none" stroke-width="0"/>

<!-- Association DO -->
<line x1="43" y1="51" x2="130" y2="51" stroke="#9970ab" stroke-width="2"/>
<text x="82" y="68.0" fill="#1b7837" font-family="Verdana" font-size="12">1,N</text>
<line x1="201" y1="51" x2="130" y2="51" stroke="#9970ab" stroke-width="2"/>
<text x="152" y="43.0" fill="#1b7837" font-family="Verdana" font-size="12">0,N</text>
<g id="association-DO">
	<path d="M 133 26 a 14 14 90 0 1 14 14 V 51 h -34 V 40 a 14 14 90 0 1 14 -14" fill="#c2a5cf" stroke="#c2a5cf" stroke-width="0"/>
	<path d="M 147 51.0 v 11 a 14 14 90 0 1 -14 14 H 127 a 14 14 90 0 1 -14 -14 V 51.0 H 34" fill="#e7d4e8" stroke="#e7d4e8" stroke-width="0"/>
	<rect x="113" y="26" width="34" height="50" fill="none" rx="14" stroke="#9970ab" stroke-width="2"/>
	<line x1="113" y1="51" x2="147" y2="51" stroke="#9970ab" stroke-width="1"/>
	<text x="120" y="43.7" fill="#000000" font-family="Verdana" font-size="12">DO</text>
</g>

<!-- Association BELONG -->
<line x1="43" y1="235" x2="43" y2="143" stroke="#9970ab" stroke-width="2"/>
<text x="48.0" y="193" fill="#1b7837" font-family="Verdana" font-size="12">1,N</text>
<line x1="43" y1="51" x2="43" y2="143" stroke="#9970ab" stroke-width="2"/>
<text x="48.0" y="110" fill="#1b7837" font-family="Verdana" font-size="12">0,N</text>
<g id="association-BELONG">
	<path d="M 62 118 a 14 14 90 0 1 14 14 V 143 h -66 V 132 a 14 14 90 0 1 14 -14" fill="#c2a5cf" stroke="#c2a5cf" stroke-width="0"/>
	<path d="M 76 143.0 v 11 a 14 14 90 0 1 -14 14 H 24 a 14 14 90 0 1 -14 -14 V 143.0 H 66" fill="#e7d4e8" stroke="#e7d4e8" stroke-width="0"/>
	<rect x="10" y="118" width="66" height="50" fill="none" rx="14" stroke="#9970ab" stroke-width="2"/>
	<line x1="10" y1="143" x2="76" y2="143" stroke="#9970ab" stroke-width="1"/>
	<text x="17" y="135.7" fill="#000000" font-family="Verdana" font-size="12">BELONG</text>
</g>

<!-- Association LINK -->
<line x1="201" y1="51" x2="201" y2="143" stroke="#9970ab" stroke-width="2"/>
<text x="206.0" y="102" fill="#1b7837" font-family="Verdana" font-size="12">0,N</text>
<line x1="201" y1="235" x2="201" y2="143" stroke="#9970ab" stroke-width="2"/>
<text x="206.0" y="185" fill="#1b7837" font-family="Verdana" font-size="12">1,1</text>
<g id="association-LINK">
	<path d="M 209 118 a 14 14 90 0 1 14 14 V 143 h -44 V 132 a 14 14 90 0 1 14 -14" fill="#c2a5cf" stroke="#c2a5cf" stroke-width="0"/>
	<path d="M 223 143.0 v 11 a 14 14 90 0 1 -14 14 H 193 a 14 14 90 0 1 -14 -14 V 143.0 H 44" fill="#e7d4e8" stroke="#e7d4e8" stroke-width="0"/>
	<rect x="179" y="118" width="44" height="50" fill="none" rx="14" stroke="#9970ab" stroke-width="2"/>
	<line x1="179" y1="143" x2="223" y2="143" stroke="#9970ab" stroke-width="1"/>
	<text x="186" y="135.7" fill="#000000" font-family="Verdana" font-size="12">LINK</text>
</g>

<!-- Entity DATA -->
<g id="entity-DATA">
	<g id="frame-DATA">
		<rect x="176" y="193" width="50" height="25" fill="#a6dba0" stroke="#a6dba0" stroke-width="0"/>
		<rect x="176" y="218.0" width="50" height="59" fill="#d9f0d3" stroke="#d9f0d3" stroke-width="0"/>
		<rect x="176" y="193" width="50" height="84" fill="none" stroke="#5aae61" stroke-width="2"/>
		<line x1="176" y1="218" x2="226" y2="218" stroke="#5aae61" stroke-width="1"/>
	</g>
	<text x="184" y="210.7" fill="#000000" font-family="Verdana" font-size="12">DATA</text>
	<text x="181" y="235.8" fill="#000000" font-family="Verdana" font-size="12">idData</text>
	<line x1="181" y1="238" x2="221" y2="238" stroke="#000000" stroke-width="1"/>
	<text x="181" y="252.8" fill="#000000" font-family="Verdana" font-size="12">label</text>
	<text x="181" y="269.8" fill="#000000" font-family="Verdana" font-size="12">values</text>
</g>

<!-- Entity GROUP -->
<g id="entity-GROUP">
	<g id="frame-GROUP">
		<rect x="13" y="201" width="60" height="25" fill="#a6dba0" stroke="#a6dba0" stroke-width="0"/>
		<rect x="13" y="226.0" width="60" height="43" fill="#d9f0d3" stroke="#d9f0d3" stroke-width="0"/>
		<rect x="13" y="201" width="60" height="68" fill="none" stroke="#5aae61" stroke-width="2"/>
		<line x1="13" y1="226" x2="73" y2="226" stroke="#5aae61" stroke-width="1"/>
	</g>
	<text x="21" y="218.7" fill="#000000" font-family="Verdana" font-size="12">GROUP</text>
	<text x="18" y="243.8" fill="#000000" font-family="Verdana" font-size="12">idGroup</text>
	<line x1="18" y1="246" x2="67" y2="246" stroke="#000000" stroke-width="1"/>
	<text x="18" y="260.8" fill="#000000" font-family="Verdana" font-size="12">name</text>
</g>

<!-- Entity USER -->
<g id="entity-USER">
	<g id="frame-USER">
		<rect x="9" y="9" width="68" height="25" fill="#a6dba0" stroke="#a6dba0" stroke-width="0"/>
		<rect x="9" y="34.0" width="68" height="59" fill="#d9f0d3" stroke="#d9f0d3" stroke-width="0"/>
		<rect x="9" y="9" width="68" height="84" fill="none" stroke="#5aae61" stroke-width="2"/>
		<line x1="9" y1="34" x2="77" y2="34" stroke="#5aae61" stroke-width="1"/>
	</g>
	<text x="26" y="26.7" fill="#000000" font-family="Verdana" font-size="12">USER</text>
	<text x="14" y="51.8" fill="#000000" font-family="Verdana" font-size="12">id</text>
	<line x1="14" y1="54" x2="26" y2="54" stroke="#000000" stroke-width="1"/>
	<text x="14" y="68.8" fill="#000000" font-family="Verdana" font-size="12">email</text>
	<text x="14" y="85.8" fill="#000000" font-family="Verdana" font-size="12">password</text>
</g>

<!-- Entity LAB -->
<g id="entity-LAB">
	<g id="frame-LAB">
		<rect x="179" y="17" width="44" height="25" fill="#a6dba0" stroke="#a6dba0" stroke-width="0"/>
		<rect x="179" y="42.0" width="44" height="43" fill="#d9f0d3" stroke="#d9f0d3" stroke-width="0"/>
		<rect x="179" y="17" width="44" height="68" fill="none" stroke="#5aae61" stroke-width="2"/>
		<line x1="179" y1="42" x2="223" y2="42" stroke="#5aae61" stroke-width="1"/>
	</g>
	<text x="189" y="34.7" fill="#000000" font-family="Verdana" font-size="12">LAB</text>
	<text x="184" y="59.8" fill="#000000" font-family="Verdana" font-size="12">idLab</text>
	<line x1="184" y1="62" x2="217" y2="62" stroke="#000000" stroke-width="1"/>
	<text x="184" y="76.8" fill="#000000" font-family="Verdana" font-size="12">title</text>
</g>
</svg>